{
    "nextId": 5,
    "items": [
        {
            "id": 0,
            "role":1,
            "login": "sashko",
            "fullname": "Klapatiuk Oleksandr Petrovych",
            "registeredAt": "2019-08-20",
            "avaUrl": "https://scontent.fdnk1-1.fna.fbcdn.net/v/t1.0-9/46501371_2190938267814435_3578620214780100608_o.jpg?_nc_cat=108&_nc_oc=AQk5ZYQGUFT7IGWEIDRvK2EwTD47e6LbeEcS-3Fe7eIImePpD0VlAyxjbadvuMqg-uQ&_nc_ht=scontent.fdnk1-1.fna&oh=79f6f0cf9d98d75330aa6ef99d428771&oe=5DFF27C1",
            "isDisabled": true
        },
        {
            "id": 1,
            "role":0,
            "login": "MaxPower",
            "fullname": "Homer Jay Simpson",
            "registeredAt": "2019-08-20",
            "avaUrl": "https://www.kcbi.org/wp-content/uploads/2019/03/homer-simpson.jpg",
            "isDisabled": false
        },
        {
            "id": 2,
            "role":1,
            "login": "leoTitanik",
            "fullname": "Leonardo Dicaprio",
            "registeredAt": "2019-08-20",
            "avaUrl": "https://www.indiewire.com/wp-content/uploads/2019/07/Screen-Shot-2019-07-24-at-12.18.54-PM.png?w=780",
            "isDisabled": false
        },
	    {
            "id": 3,
            "role":0,
            "login": "komunist",
            "fullname": "Vladimir Llich Lenin",
            "registeredAt": "2019-08-20",
            "avaUrl": "https://cdn.britannica.com/13/59613-050-D57A3D88/Vladimir-Ilich-Lenin-1918.jpg",
            "isDisabled": false
        },
 	    {
            "id": 4,
            "role":0,
            "login": "zaychyck",
            "fullname": "Deadpool",
            "registeredAt": "2019-08-20",
            "avaUrl": "https://cdn1us.denofgeek.com/sites/denofgeekus/files/styles/main_wide/public/2016/01/deadpool-ryan-reynolds-petition.jpg?itok=BcgLxkHQ",
            "isDisabled": false
        }
    ]
}